## Interface: 33920
## Title: |cff00ff00Krap|cffffcc00Loot|r
## Author: Krapuul#2629
## Notes: Deals with all that Krap!
## DefaultState:  enabled
## SavedVariables: KrapLootDB
KrapLoot.lua
KrapLoot.xml